[
  {
    "name": "Stewie Griffin",
    "customerId": "777",
    "accountIds": ["1234"]
  },
  {
    "name": "Glenn Quagmire",
    "customerId": "504",
    "accountIds": ["2001"]
  },
  {
    "name": "Joe Swason",
    "customerId": "002",
    "accountIds": ["1010", "5500"]
  },
  {
    "name": "Peter Griffin",
    "customerId": "123",
    "accountIds": ["0123"]
  },
  {
    "name": "Lois Griffin",
    "customerId": "456",
    "accountIds": ["0456", "0123"]
  },
  {
    "name":"John Shark",
    "customerId": "219",
    "accountIds": []
  }
]